<?xml version="1.0" encoding="utf-8"?>
<!-- Generator: Adobe Illustrator 15.0.0, SVG Export Plug-In  -->
<!DOCTYPE svg PUBLIC "-//W3C//DTD SVG 1.1//EN" "http://www.w3.org/Graphics/SVG/1.1/DTD/svg11.dtd" [
	<!ENTITY ns_flows "http://ns.adobe.com/Flows/1.0/">
]>
<svg version="1.1"
	 xmlns="http://www.w3.org/2000/svg" xmlns:xlink="http://www.w3.org/1999/xlink" xmlns:a="http://ns.adobe.com/AdobeSVGViewerExtensions/3.0/"
	 x="0px" y="0px" width="67px" height="67px" viewBox="0 0 67 67" enable-background="new 0 0 67 67" xml:space="preserve">
<defs>
</defs>
<g>
	<defs>
		<rect id="SVGID_1_" width="67.239" height="67.238"/>
	</defs>
	<clipPath id="SVGID_2_">
		<use xlink:href="#SVGID_1_"  overflow="visible"/>
	</clipPath>
	<path clip-path="url(#SVGID_2_)" fill="#EBEBEB" d="M33.62,63.238c-16.333,0-29.619-13.287-29.619-29.619
		C4.001,17.287,17.287,4,33.62,4c16.332,0,29.619,13.287,29.619,29.619C63.239,49.951,49.952,63.238,33.62,63.238 M33.62,67.238
		c18.567,0,33.619-15.052,33.619-33.619C67.239,15.052,52.186,0,33.62,0C15.053,0,0.001,15.052,0.001,33.619
		C0.001,52.186,15.053,67.238,33.62,67.238"/>
	<path clip-path="url(#SVGID_2_)" fill="#EBEBEB" d="M24.996,45.679l12.061-12.061L24.996,21.56
		c-0.184-0.184-0.307-0.46-0.307-0.706c0-0.245,0.123-0.521,0.307-0.705l1.535-1.534c0.185-0.185,0.46-0.308,0.705-0.308
		c0.246,0,0.522,0.123,0.706,0.308l14.3,14.3c0.185,0.184,0.306,0.459,0.306,0.705c0,0.246-0.121,0.522-0.306,0.706l-14.3,14.3
		c-0.184,0.185-0.46,0.307-0.706,0.307c-0.245,0-0.521-0.122-0.705-0.307l-1.535-1.534c-0.184-0.185-0.307-0.43-0.307-0.705
		C24.689,46.139,24.813,45.863,24.996,45.679"/>
</g>
</svg>
