<?xml version="1.0" encoding="utf-8"?>
<!-- Generator: Adobe Illustrator 15.0.0, SVG Export Plug-In  -->
<!DOCTYPE svg PUBLIC "-//W3C//DTD SVG 1.1//EN" "http://www.w3.org/Graphics/SVG/1.1/DTD/svg11.dtd" [
	<!ENTITY ns_flows "http://ns.adobe.com/Flows/1.0/">
]>
<svg version="1.1"
	 xmlns="http://www.w3.org/2000/svg" xmlns:xlink="http://www.w3.org/1999/xlink" xmlns:a="http://ns.adobe.com/AdobeSVGViewerExtensions/3.0/"
	 x="0px" y="0px" width="320px" height="595px" viewBox="0 0 320 595" enable-background="new 0 0 320 595" xml:space="preserve">
<defs>
</defs>
<g>
	<defs>
		<rect id="SVGID_1_" x="0" y="0" width="319.792" height="595.428"/>
	</defs>
	<clipPath id="SVGID_2_">
		<use xlink:href="#SVGID_1_"  overflow="visible"/>
	</clipPath>
	<path clip-path="url(#SVGID_2_)" fill="#FFFFFF" d="M307.553,309.996c-3.021,0-6.161-1.163-8.486-3.488L3.751,21.075
		c-4.883-4.65-4.999-12.44-0.348-17.323c4.65-4.883,12.44-4.999,17.323-0.349l295.314,285.432c4.884,4.651,5,12.44,0.35,17.324
		C313.949,308.833,310.81,309.996,307.553,309.996"/>
	<path clip-path="url(#SVGID_2_)" fill="#FFFFFF" d="M12.239,595.428c-3.256,0-6.395-1.279-8.836-3.721
		c-4.65-4.883-4.534-12.673,0.349-17.324L299.066,288.95c4.885-4.65,12.674-4.534,17.323,0.35
		c4.652,4.883,4.536,12.673-0.348,17.323L20.726,591.94C18.401,594.265,15.262,595.428,12.239,595.428"/>
</g>
</svg>
